{
  "swagger": "2.0",
  "info": {
    "description": "Dokumentasi Player API",
    "version": "1.0.0",
    "title": "Code Challenge 8",
    "termsOfService": "",
    "contact": {
      "email": "roymanlanjutmanik@gmail.com"
    },
    "license": {
      "name": "Apache 2.0",
      "url": "http://www.apache.org/licenses/LICENSE-2.0.html"
    }
  },
  "host": "localhost:5000",
  "basePath": "/api",
  "tags": [
    {
      "name": "Players",
      "description": "Data Players"
    }
  ],
  "schemes": ["https", "http"],
  "paths": {
    "/api/players": {
      "get": {
        "tags": ["Players"],
        "summary": "Menampilkan semua player",
        "description": "Menampilkan semua player",
        "produces": ["application/json"],
        "responses": {
          "200": {
            "description": "Success",
            "schema": {
              "type": "array",
              "items": {
                "$ref": "#/definitions/Player"
              }
            }
          },
          "400": {
            "description": "Bad Request"
          }
        }
      },
      "post": {
        "tags": ["Players"],
        "summary": "Membuat player baru",
        "description": "Membuat player baru",
        "produces": ["application/json"],
        "consumes": ["application/json"],
        "parameters": [
          {
            "in": "body",
            "name": "username",
            "description": "Player object",
            "required": true,
            "schema": {
              "$ref": "#/definitions/Player"
            }
          }
        ],
        "security": [
          {
            "Token": []
          }
        ],
        "responses": {
          "200": {
            "description": "Successfully create new player",
            "schema": {
              "$ref": "#/definitions/Player"
            }
          },
          "400": {
            "description": "Failed to create new player",
            "schema": {
              "type": "object",
              "properties": {
                "message": {
                  "type": "string",
                  "example": "Some error occurred while creating the Player."
                }
              }
            }
          }
        }
      }
    },
    "/api/players/{id}": {
      "get": {
        "tags": ["Players"],
        "summary": "Menampilkan player sesuai ID",
        "description": "Menampilkan player sesuai ID",
        "produces": ["application/json"],
        "parameters": [
          {
            "name": "id",
            "in": "path",
            "description": "ID of player to return",
            "required": true,
            "type": "integer",
            "format": "int64"
          }
        ],
        "responses": {
          "200": {
            "description": "Success",
            "schema": {
              "type": "array",
              "items": {
                "$ref": "#/definitions/Player"
              }
            }
          },
          "400": {
            "description": "Error retrieving Player. Maybe Player was not found or req.body is empty!"
          }
        }
      },
      "put": {
        "tags": ["Players"],
        "summary": "Mengupdate player sesuai ID",
        "description": "Mengupdate player sesuai ID",
        "produces": ["application/json"],
        "parameters": [
          {
            "name": "id",
            "in": "path",
            "description": "Update Player object",
            "required": true,
            "type": "integer",
            "format": "int64"
          }
        ],
        "responses": {
          "200": {
            "description": "Success",
            "schema": {
              "type": "array",
              "items": {
                "$ref": "#/definitions/Player"
              }
            }
          },
          "400": {
            "description": "Failed to update the player",
            "schema": {
              "type": "object",
              "properties": {
                "message": {
                  "type": "string",
                  "example": "Cannot update the Player. Maybe Player was not found or req.body is empty!"
                }
              }
            }
          }
        }
      },
      "delete": {
        "tags": ["Players"],
        "summary": "Menghapus player sesuai ID",
        "description": "Menghapus player sesuai ID",
        "produces": ["application/json"],
        "parameters": [
          {
            "name": "id",
            "in": "path",
            "description": "Delete Player object",
            "required": true,
            "type": "integer",
            "format": "int64"
          }
        ],
        "responses": {
          "200": {
            "description": "Successfully delete the player"
          },
          "400": {
            "description": "Could not delete Player",
            "schema": {
              "type": "object",
              "properties": {
                "message": {
                  "type": "string",
                  "example": "Cannot delete Player with the ID. Maybe Player was not found!"
                }
              }
            }
          }
        }
      }
    },
    "/api/exp/{id}": {
      "post": {
        "tags": ["Players"],
        "summary": "Menambahkan exp player sesuai ID",
        "description": "Menambahkan exp player sesuai ID",
        "produces": ["application/json"],
        "consumes": ["application/json"],
        "parameters": [
          {
            "name": "id",
            "in": "path",
            "description": "Update Player object",
            "required": true,
            "type": "integer",
            "format": "int64"
          }
        ],
        "security": [
          {
            "Token": []
          }
        ],
        "responses": {
          "200": {
            "description": "Successfully add the player experience",
            "schema": {
              "$ref": "#/definitions/Player"
            }
          },
          "400": {
            "description": "Cannot update Player with id"
          }
        }
      }
    }
  },
  "securityDefinitions": {
    "Token": {
      "type": "apiKey",
      "name": "Authorization",
      "in": "header"
    }
  },
  "definitions": {
    "Player": {
      "type": "object",
      "properties": {
        "id": {
          "type": "integer",
          "format": "int64",
          "example": 1
        },
        "username": {
          "type": "string",
          "example": "roymanik"
        },
        "email": {
          "type": "string",
          "example": "roymanlanjutmanik@gmail.com"
        },
        "experience": {
          "type": "integer",
          "example": 999
        },
        "lvl": {
          "type": "integer",
          "example": 999
        }
      }
    }
  },
  "externalDocs": {}
}
